[
  {
    "id": "marketplace",
    "name": "me.deftware:marketplace:latest",
    "maven": "https://gitlab.com/EMC-Framework/maven/raw/master/",
    "preprocessor": "me.deftware.marketplace.Main"
  }
]
